{
  "dev": {
    "awscloudformation": {
      "AuthRoleName": "amplify-subscribers-dev-170329-authRole",
      "UnauthRoleArn": "arn:aws:iam::513637385727:role/amplify-subscribers-dev-170329-unauthRole",
      "AuthRoleArn": "arn:aws:iam::513637385727:role/amplify-subscribers-dev-170329-authRole",
      "Region": "eu-central-1",
      "DeploymentBucketName": "amplify-subscribers-dev-170329-deployment",
      "UnauthRoleName": "amplify-subscribers-dev-170329-unauthRole",
      "StackName": "amplify-subscribers-dev-170329",
      "StackId": "arn:aws:cloudformation:eu-central-1:513637385727:stack/amplify-subscribers-dev-170329/a0ae0380-72c3-11eb-aa29-02e8e903b0a2",
      "AmplifyAppId": "d1pjsjd3sndtp4"
    },
    "categories": {
      "function": {
        "subscribersfunction": {
          "deploymentBucketName": "amplify-subscribers-dev-170329-deployment",
          "s3Key": "amplify-builds/subscribersfunction-6b2b6e33676656685443-build.zip"
        }
      }
    }
  }
}